counter_test/simulation/qsim/counter.msim.vcd
$comment
	File created using the following command:
		vcd file counter.msim.vcd -direction
$end
$date
	Wed Nov 23 08:36:15 2022
$end
$version
	ModelSim Version 10.1d
$end
$timescale
	1ps
$end
$scope module counter_vlg_vec_tst $end
$var reg 1 ! clk $end
$var reg 1 " en $end
$var reg 1 # rst $end
$var wire 1 $ out_count [4] $end
$var wire 1 % out_count [3] $end
$var wire 1 & out_count [2] $end
$var wire 1 ' out_count [1] $end
$var wire 1 ( out_count [0] $end
$var wire 1 ) sampler $end
$scope module i1 $end
$var wire 1 * gnd $end
$var wire 1 + vcc $end
$var wire 1 , unknown $end
$var tri1 1 - devclrn $end
$var tri1 1 . devpor $end
$var tri1 1 / devoe $end
$var wire 1 0 en~input_o $end
$var wire 1 1 out_count[0]~output_o $end
$var wire 1 2 out_count[1]~output_o $end
$var wire 1 3 out_count[2]~output_o $end
$var wire 1 4 out_count[3]~output_o $end
$var wire 1 5 out_count[4]~output_o $end
$var wire 1 6 clk~input_o $end
$var wire 1 7 clk~inputclkctrl_outclk $end
$var wire 1 8 out_count[1]~5_combout $end
$var wire 1 9 rst~input_o $end
$var wire 1 : rst~inputclkctrl_outclk $end
$var wire 1 ; out_count[1]~6 $end
$var wire 1 < out_count[2]~7_combout $end
$var wire 1 = out_count[2]~reg0_q $end
$var wire 1 > out_count[2]~8 $end
$var wire 1 ? out_count[3]~9_combout $end
$var wire 1 @ out_count[3]~reg0_q $end
$var wire 1 A out_count[3]~10 $end
$var wire 1 B out_count[4]~11_combout $end
$var wire 1 C out_count[4]~reg0_q $end
$var wire 1 D Equal0~1_combout $end
$var wire 1 E out_count[1]~reg0_q $end
$var wire 1 F Equal0~0_combout $end
$var wire 1 G out_count[0]~4_combout $end
$var wire 1 H out_count[0]~reg0_q $end
$upscope $end
$upscope $end
$enddefinitions $end
#0
$dumpvars
0!
0"
0#
0(
0'
0&
0%
0$
x)
0*
1+
x,
1-
1.
1/
00
01
02
03
04
05
06
07
08
09
0:
0;
0<
0=
1>
0?
0@
0A
0B
0C
1D
0E
0F
1G
0H
$end
#5000
1!
16
17
0)
#10000
0!
06
07
1)
#15000
1!
16
17
0)
#20000
0!
06
07
1)
#25000
1!
16
17
0)
#30000
1#
0!
19
06
1:
07
1)
#35000
1!
16
17
0)
1H
0G
18
11
1(
#40000
0!
06
07
1)
#45000
1!
16
17
0)
0H
1E
1G
01
12
0(
1'
#50000
0!
06
07
1)
#55000
1!
16
17
0)
1H
0G
1;
08
11
1(
1<
#60000
0!
06
07
1)
#65000
1!
16
17
0)
0H
0E
1=
1G
0;
0>
0<
01
02
13
0(
0'
1&
1>
1<
1?
0?
#70000
0!
06
07
1)
#75000
1!
16
17
0)
1H
0G
1F
18
11
1(
1G
0D
#80000
0!
06
07
1)
#85000
1!
16
17
0)
#90000
0!
06
07
1)
#95000
1!
16
17
0)
#100000
0!
06
07
1)
#105000
1!
16
17
0)
#110000
0!
06
07
1)
#115000
1!
16
17
0)
#120000
0!
06
07
1)
#125000
1!
16
17
0)
#130000
0!
06
07
1)
#135000
1!
16
17
0)
#140000
0!
06
07
1)
#145000
1!
16
17
0)
#150000
0!
06
07
1)
#155000
1!
16
17
0)
#160000
1"
0!
10
06
07
1)
#165000
1!
16
17
0)
#170000
0!
06
07
1)
#175000
1!
16
17
0)
#180000
0!
06
07
1)
#185000
1!
16
17
0)
#190000
0!
06
07
1)
#195000
1!
16
17
0)
#200000
0!
06
07
1)
#205000
1!
16
17
0)
#210000
0!
06
07
1)
#215000
1!
16
17
0)
#220000
0!
06
07
1)
#225000
1!
16
17
0)
#230000
0!
06
07
1)
#235000
1!
16
17
0)
#240000
0!
06
07
1)
#245000
1!
16
17
0)
#250000
0!
06
07
1)
#255000
1!
16
17
0)
#260000
0!
06
07
1)
#265000
1!
16
17
0)
#270000
0!
06
07
1)
#275000
1!
16
17
0)
#280000
0!
06
07
1)
#285000
1!
16
17
0)
#290000
0!
06
07
1)
#295000
1!
16
17
0)
#300000
0!
06
07
1)
#305000
1!
16
17
0)
#310000
0!
06
07
1)
#315000
1!
16
17
0)
#320000
0!
06
07
1)
#325000
1!
16
17
0)
#330000
0!
06
07
1)
#335000
1!
16
17
0)
#340000
0!
06
07
1)
#345000
1!
16
17
0)
#350000
0!
06
07
1)
#355000
1!
16
17
0)
#360000
0"
0!
00
06
07
1)
#365000
1!
16
17
0)
#370000
0!
06
07
1)
#375000
1!
16
17
0)
#380000
0!
06
07
1)
#385000
1!
16
17
0)
#390000
0!
06
07
1)
#395000
1!
16
17
0)
#400000
0!
06
07
1)
#405000
1!
16
17
0)
#410000
0!
06
07
1)
#415000
1!
16
17
0)
#420000
0!
06
07
1)
#425000
1!
16
17
0)
#430000
0!
06
07
1)
#435000
1!
16
17
0)
#440000
0!
06
07
1)
#445000
1!
16
17
0)
#450000
0!
06
07
1)
#455000
1!
16
17
0)
#460000
0!
06
07
1)
#465000
1!
16
17
0)
#470000
0!
06
07
1)
#475000
1!
16
17
0)
#480000
0!
06
07
1)
#485000
1!
16
17
0)
#490000
0!
06
07
1)
#495000
1!
16
17
0)
#500000
0!
06
07
1)
#505000
1!
16
17
0)
#510000
0!
06
07
1)
#515000
1!
16
17
0)
#520000
0!
06
07
1)
#525000
1!
16
17
0)
#530000
0!
06
07
1)
#535000
1!
16
17
0)
#540000
0!
06
07
1)
#545000
1!
16
17
0)
#550000
0!
06
07
1)
#555000
1!
16
17
0)
#560000
0!
06
07
1)
#565000
1!
16
17
0)
#570000
0!
06
07
1)
#575000
1!
16
17
0)
#580000
0!
06
07
1)
#585000
1!
16
17
0)
#590000
0!
06
07
1)
#595000
1!
16
17
0)
#600000
0!
06
07
1)
#605000
1!
16
17
0)
#610000
0!
06
07
1)
#615000
1!
16
17
0)
#620000
0!
06
07
1)
#625000
1!
16
17
0)
#630000
0!
06
07
1)
#635000
1!
16
17
0)
#640000
0!
06
07
1)
#645000
1!
16
17
0)
#650000
0!
06
07
1)
#655000
1!
16
17
0)
#660000
0!
06
07
1)
#665000
1!
16
17
0)
#670000
0!
06
07
1)
#675000
1!
16
17
0)
#680000
0!
06
07
1)
#685000
1!
16
17
0)
#690000
0!
06
07
1)
#695000
1!
16
17
0)
#700000
0!
06
07
1)
#705000
1!
16
17
0)
#710000
0!
06
07
1)
#715000
1!
16
17
0)
#720000
0!
06
07
1)
#725000
1!
16
17
0)
#730000
0!
06
07
1)
#735000
1!
16
17
0)
#740000
0!
06
07
1)
#745000
1!
16
17
0)
#750000
0!
06
07
1)
#755000
1!
16
17
0)
#760000
0!
06
07
1)
#765000
1!
16
17
0)
#770000
0!
06
07
1)
#775000
1!
16
17
0)
#780000
0!
06
07
1)
#785000
1!
16
17
0)
#790000
0!
06
07
1)
#795000
1!
16
17
0)
#800000
0!
06
07
1)
#805000
1!
16
17
0)
#810000
0!
06
07
1)
#815000
1!
16
17
0)
#820000
0!
06
07
1)
#825000
1!
16
17
0)
#830000
0!
06
07
1)
#835000
1!
16
17
0)
#840000
0!
06
07
1)
#845000
1!
16
17
0)
#850000
0!
06
07
1)
#855000
1!
16
17
0)
#860000
0!
06
07
1)
#865000
1!
16
17
0)
#870000
0!
06
07
1)
#875000
1!
16
17
0)
#880000
0!
06
07
1)
#885000
1!
16
17
0)
#890000
0!
06
07
1)
#895000
1!
16
17
0)
#900000
0!
06
07
1)
#905000
1!
16
17
0)
#910000
0!
06
07
1)
#915000
1!
16
17
0)
#920000
0!
06
07
1)
#925000
1!
16
17
0)
#930000
0!
06
07
1)
#935000
1!
16
17
0)
#940000
0!
06
07
1)
#945000
1!
16
17
0)
#950000
0!
06
07
1)
#955000
1!
16
17
0)
#960000
0!
06
07
1)
#965000
1!
16
17
0)
#970000
0!
06
07
1)
#975000
1!
16
17
0)
#980000
0!
06
07
1)
#985000
1!
16
17
0)
#990000
0!
06
07
1)
#995000
1!
16
17
0)
