AFIFO_TEST/simulation/qsim/AFIFO_TEST.msim.vcd
$comment
	File created using the following command:
		vcd file AFIFO_TEST.msim.vcd -direction
$end
$date
	Thu Nov 24 00:08:09 2022
$end
$version
	ModelSim Version 10.1d
$end
$timescale
	1ps
$end
$scope module AFIFO_vlg_vec_tst $end
$var reg 1 ! rclk $end
$var reg 1 " rinc $end
$var reg 1 # rst_n $end
$var reg 1 $ wclk $end
$var reg 8 % wdata [7:0] $end
$var reg 1 & winc $end
$var wire 1 ' rdata [7] $end
$var wire 1 ( rdata [6] $end
$var wire 1 ) rdata [5] $end
$var wire 1 * rdata [4] $end
$var wire 1 + rdata [3] $end
$var wire 1 , rdata [2] $end
$var wire 1 - rdata [1] $end
$var wire 1 . rdata [0] $end
$var wire 1 / rempty $end
$var wire 1 0 wfull $end
$var wire 1 1 sampler $end
$scope module i1 $end
$var wire 1 2 gnd $end
$var wire 1 3 vcc $end
$var wire 1 4 unknown $end
$var tri1 1 5 devclrn $end
$var tri1 1 6 devpor $end
$var tri1 1 7 devoe $end
$var wire 1 8 rempty~output_o $end
$var wire 1 9 rdata[0]~output_o $end
$var wire 1 : rdata[1]~output_o $end
$var wire 1 ; rdata[2]~output_o $end
$var wire 1 < rdata[3]~output_o $end
$var wire 1 = rdata[4]~output_o $end
$var wire 1 > rdata[5]~output_o $end
$var wire 1 ? rdata[6]~output_o $end
$var wire 1 @ rdata[7]~output_o $end
$var wire 1 A wfull~output_o $end
$var wire 1 B rclk~input_o $end
$var wire 1 C rclk~inputclkctrl_outclk $end
$var wire 1 D wclk~input_o $end
$var wire 1 E wclk~inputclkctrl_outclk $end
$var wire 1 F winc~input_o $end
$var wire 1 G rinc~input_o $end
$var wire 1 H rptr_empty_m0|Add0~3_combout $end
$var wire 1 I rst_n~input_o $end
$var wire 1 J rst_n~inputclkctrl_outclk $end
$var wire 1 K rptr_empty_m0|Add0~2_combout $end
$var wire 1 L rptr_empty_m0|Add0~0_combout $end
$var wire 1 M rptr_empty_m0|Add0~4_combout $end
$var wire 1 N rptr_empty_m0|rptr[1]~feeder_combout $end
$var wire 1 O sync_r2w_m0|wq1_rptr[1]~feeder_combout $end
$var wire 1 P wptr_full_m0|wbin[1]~feeder_combout $end
$var wire 1 Q wptr_full_m0|Add0~3_combout $end
$var wire 1 R wptr_full_m0|Add0~1_combout $end
$var wire 1 S wptr_full_m0|wbin[3]~feeder_combout $end
$var wire 1 T rptr_empty_m0|Add0~5_combout $end
$var wire 1 U rptr_empty_m0|rbin[3]~feeder_combout $end
$var wire 1 V rptr_empty_m0|rptr[2]~feeder_combout $end
$var wire 1 W wptr_full_m0|Equal0~1_combout $end
$var wire 1 X wptr_full_m0|Equal0~2_combout $end
$var wire 1 Y rptr_empty_m0|Add0~1_combout $end
$var wire 1 Z rptr_empty_m0|rbin[4]~feeder_combout $end
$var wire 1 [ sync_r2w_m0|wq2_rptr[3]~feeder_combout $end
$var wire 1 \ wptr_full_m0|wbin[4]~feeder_combout $end
$var wire 1 ] wptr_full_m0|Add0~2_combout $end
$var wire 1 ^ wptr_full_m0|Equal0~0_combout $end
$var wire 1 _ wptr_full_m0|Equal0~3_combout $end
$var wire 1 ` wptr_full_m0|wfull~q $end
$var wire 1 a wptr_full_m0|Add0~4_combout $end
$var wire 1 b wptr_full_m0|wbin[0]~feeder_combout $end
$var wire 1 c wptr_full_m0|Add0~0_combout $end
$var wire 1 d wptr_full_m0|Add0~5_combout $end
$var wire 1 e wptr_full_m0|wptr[1]~feeder_combout $end
$var wire 1 f sync_w2r_m0|rq2_wptr[1]~feeder_combout $end
$var wire 1 g sync_w2r_m0|rq1_wptr[3]~feeder_combout $end
$var wire 1 h sync_w2r_m0|rq1_wptr[4]~feeder_combout $end
$var wire 1 i rptr_empty_m0|Equal0~0_combout $end
$var wire 1 j sync_w2r_m0|rq1_wptr[2]~feeder_combout $end
$var wire 1 k sync_w2r_m0|rq2_wptr[2]~feeder_combout $end
$var wire 1 l wptr_full_m0|wptr[0]~feeder_combout $end
$var wire 1 m sync_w2r_m0|rq1_wptr[0]~feeder_combout $end
$var wire 1 n rptr_empty_m0|Equal0~1_combout $end
$var wire 1 o rptr_empty_m0|Equal0~2_combout $end
$var wire 1 p rptr_empty_m0|rempty~q $end
$var wire 1 q fifomem_m0|mem~0feeder_combout $end
$var wire 1 r fifomem_m0|mem~0_q $end
$var wire 1 s wdata[0]~input_o $end
$var wire 1 t fifomem_m0|mem~17_combout $end
$var wire 1 u fifomem_m0|mem~18_combout $end
$var wire 1 v fifomem_m0|mem~1_q $end
$var wire 1 w fifomem_m0|always0~0_combout $end
$var wire 1 x wdata[1]~input_o $end
$var wire 1 y wdata[2]~input_o $end
$var wire 1 z wdata[3]~input_o $end
$var wire 1 { wdata[4]~input_o $end
$var wire 1 | wdata[5]~input_o $end
$var wire 1 } wdata[6]~input_o $end
$var wire 1 ~ wdata[7]~input_o $end
$var wire 1 !! fifomem_m0|mem_rtl_0|auto_generated|ram_block1a0~portbdataout $end
$var wire 1 "! fifomem_m0|mem~9_combout $end
$var wire 1 #! fifomem_m0|mem_rtl_0|auto_generated|ram_block1a1 $end
$var wire 1 $! fifomem_m0|mem~2_q $end
$var wire 1 %! fifomem_m0|mem~10_combout $end
$var wire 1 &! fifomem_m0|mem~3_q $end
$var wire 1 '! fifomem_m0|mem_rtl_0|auto_generated|ram_block1a2 $end
$var wire 1 (! fifomem_m0|mem~11_combout $end
$var wire 1 )! fifomem_m0|mem~4_q $end
$var wire 1 *! fifomem_m0|mem_rtl_0|auto_generated|ram_block1a3 $end
$var wire 1 +! fifomem_m0|mem~12_combout $end
$var wire 1 ,! fifomem_m0|mem~5_q $end
$var wire 1 -! fifomem_m0|mem_rtl_0|auto_generated|ram_block1a4 $end
$var wire 1 .! fifomem_m0|mem~13_combout $end
$var wire 1 /! fifomem_m0|mem~6_q $end
$var wire 1 0! fifomem_m0|mem_rtl_0|auto_generated|ram_block1a5 $end
$var wire 1 1! fifomem_m0|mem~14_combout $end
$var wire 1 2! fifomem_m0|mem~7_q $end
$var wire 1 3! fifomem_m0|mem_rtl_0|auto_generated|ram_block1a6 $end
$var wire 1 4! fifomem_m0|mem~15_combout $end
$var wire 1 5! fifomem_m0|mem~8_q $end
$var wire 1 6! fifomem_m0|mem_rtl_0|auto_generated|ram_block1a7 $end
$var wire 1 7! fifomem_m0|mem~16_combout $end
$var wire 1 8! rptr_empty_m0|rbin [4] $end
$var wire 1 9! rptr_empty_m0|rbin [3] $end
$var wire 1 :! rptr_empty_m0|rbin [2] $end
$var wire 1 ;! rptr_empty_m0|rbin [1] $end
$var wire 1 <! rptr_empty_m0|rbin [0] $end
$var wire 1 =! sync_r2w_m0|wq1_rptr [4] $end
$var wire 1 >! sync_r2w_m0|wq1_rptr [3] $end
$var wire 1 ?! sync_r2w_m0|wq1_rptr [2] $end
$var wire 1 @! sync_r2w_m0|wq1_rptr [1] $end
$var wire 1 A! sync_r2w_m0|wq1_rptr [0] $end
$var wire 1 B! wptr_full_m0|wgraynext [4] $end
$var wire 1 C! wptr_full_m0|wgraynext [3] $end
$var wire 1 D! wptr_full_m0|wgraynext [2] $end
$var wire 1 E! wptr_full_m0|wgraynext [1] $end
$var wire 1 F! wptr_full_m0|wgraynext [0] $end
$var wire 1 G! sync_r2w_m0|wq2_rptr [4] $end
$var wire 1 H! sync_r2w_m0|wq2_rptr [3] $end
$var wire 1 I! sync_r2w_m0|wq2_rptr [2] $end
$var wire 1 J! sync_r2w_m0|wq2_rptr [1] $end
$var wire 1 K! sync_r2w_m0|wq2_rptr [0] $end
$var wire 1 L! rptr_empty_m0|rgraynext [4] $end
$var wire 1 M! rptr_empty_m0|rgraynext [3] $end
$var wire 1 N! rptr_empty_m0|rgraynext [2] $end
$var wire 1 O! rptr_empty_m0|rgraynext [1] $end
$var wire 1 P! rptr_empty_m0|rgraynext [0] $end
$var wire 1 Q! rptr_empty_m0|rptr [4] $end
$var wire 1 R! rptr_empty_m0|rptr [3] $end
$var wire 1 S! rptr_empty_m0|rptr [2] $end
$var wire 1 T! rptr_empty_m0|rptr [1] $end
$var wire 1 U! rptr_empty_m0|rptr [0] $end
$var wire 1 V! wptr_full_m0|wbin [4] $end
$var wire 1 W! wptr_full_m0|wbin [3] $end
$var wire 1 X! wptr_full_m0|wbin [2] $end
$var wire 1 Y! wptr_full_m0|wbin [1] $end
$var wire 1 Z! wptr_full_m0|wbin [0] $end
$var wire 1 [! sync_w2r_m0|rq1_wptr [4] $end
$var wire 1 \! sync_w2r_m0|rq1_wptr [3] $end
$var wire 1 ]! sync_w2r_m0|rq1_wptr [2] $end
$var wire 1 ^! sync_w2r_m0|rq1_wptr [1] $end
$var wire 1 _! sync_w2r_m0|rq1_wptr [0] $end
$var wire 1 `! sync_w2r_m0|rq2_wptr [4] $end
$var wire 1 a! sync_w2r_m0|rq2_wptr [3] $end
$var wire 1 b! sync_w2r_m0|rq2_wptr [2] $end
$var wire 1 c! sync_w2r_m0|rq2_wptr [1] $end
$var wire 1 d! sync_w2r_m0|rq2_wptr [0] $end
$var wire 1 e! wptr_full_m0|wptr [4] $end
$var wire 1 f! wptr_full_m0|wptr [3] $end
$var wire 1 g! wptr_full_m0|wptr [2] $end
$var wire 1 h! wptr_full_m0|wptr [1] $end
$var wire 1 i! wptr_full_m0|wptr [0] $end
$var wire 1 j! fifomem_m0|mem_rtl_0|auto_generated|ram_block1a0_PORTBDATAOUT_bus [35] $end
$var wire 1 k! fifomem_m0|mem_rtl_0|auto_generated|ram_block1a0_PORTBDATAOUT_bus [34] $end
$var wire 1 l! fifomem_m0|mem_rtl_0|auto_generated|ram_block1a0_PORTBDATAOUT_bus [33] $end
$var wire 1 m! fifomem_m0|mem_rtl_0|auto_generated|ram_block1a0_PORTBDATAOUT_bus [32] $end
$var wire 1 n! fifomem_m0|mem_rtl_0|auto_generated|ram_block1a0_PORTBDATAOUT_bus [31] $end
$var wire 1 o! fifomem_m0|mem_rtl_0|auto_generated|ram_block1a0_PORTBDATAOUT_bus [30] $end
$var wire 1 p! fifomem_m0|mem_rtl_0|auto_generated|ram_block1a0_PORTBDATAOUT_bus [29] $end
$var wire 1 q! fifomem_m0|mem_rtl_0|auto_generated|ram_block1a0_PORTBDATAOUT_bus [28] $end
$var wire 1 r! fifomem_m0|mem_rtl_0|auto_generated|ram_block1a0_PORTBDATAOUT_bus [27] $end
$var wire 1 s! fifomem_m0|mem_rtl_0|auto_generated|ram_block1a0_PORTBDATAOUT_bus [26] $end
$var wire 1 t! fifomem_m0|mem_rtl_0|auto_generated|ram_block1a0_PORTBDATAOUT_bus [25] $end
$var wire 1 u! fifomem_m0|mem_rtl_0|auto_generated|ram_block1a0_PORTBDATAOUT_bus [24] $end
$var wire 1 v! fifomem_m0|mem_rtl_0|auto_generated|ram_block1a0_PORTBDATAOUT_bus [23] $end
$var wire 1 w! fifomem_m0|mem_rtl_0|auto_generated|ram_block1a0_PORTBDATAOUT_bus [22] $end
$var wire 1 x! fifomem_m0|mem_rtl_0|auto_generated|ram_block1a0_PORTBDATAOUT_bus [21] $end
$var wire 1 y! fifomem_m0|mem_rtl_0|auto_generated|ram_block1a0_PORTBDATAOUT_bus [20] $end
$var wire 1 z! fifomem_m0|mem_rtl_0|auto_generated|ram_block1a0_PORTBDATAOUT_bus [19] $end
$var wire 1 {! fifomem_m0|mem_rtl_0|auto_generated|ram_block1a0_PORTBDATAOUT_bus [18] $end
$var wire 1 |! fifomem_m0|mem_rtl_0|auto_generated|ram_block1a0_PORTBDATAOUT_bus [17] $end
$var wire 1 }! fifomem_m0|mem_rtl_0|auto_generated|ram_block1a0_PORTBDATAOUT_bus [16] $end
$var wire 1 ~! fifomem_m0|mem_rtl_0|auto_generated|ram_block1a0_PORTBDATAOUT_bus [15] $end
$var wire 1 !" fifomem_m0|mem_rtl_0|auto_generated|ram_block1a0_PORTBDATAOUT_bus [14] $end
$var wire 1 "" fifomem_m0|mem_rtl_0|auto_generated|ram_block1a0_PORTBDATAOUT_bus [13] $end
$var wire 1 #" fifomem_m0|mem_rtl_0|auto_generated|ram_block1a0_PORTBDATAOUT_bus [12] $end
$var wire 1 $" fifomem_m0|mem_rtl_0|auto_generated|ram_block1a0_PORTBDATAOUT_bus [11] $end
$var wire 1 %" fifomem_m0|mem_rtl_0|auto_generated|ram_block1a0_PORTBDATAOUT_bus [10] $end
$var wire 1 &" fifomem_m0|mem_rtl_0|auto_generated|ram_block1a0_PORTBDATAOUT_bus [9] $end
$var wire 1 '" fifomem_m0|mem_rtl_0|auto_generated|ram_block1a0_PORTBDATAOUT_bus [8] $end
$var wire 1 (" fifomem_m0|mem_rtl_0|auto_generated|ram_block1a0_PORTBDATAOUT_bus [7] $end
$var wire 1 )" fifomem_m0|mem_rtl_0|auto_generated|ram_block1a0_PORTBDATAOUT_bus [6] $end
$var wire 1 *" fifomem_m0|mem_rtl_0|auto_generated|ram_block1a0_PORTBDATAOUT_bus [5] $end
$var wire 1 +" fifomem_m0|mem_rtl_0|auto_generated|ram_block1a0_PORTBDATAOUT_bus [4] $end
$var wire 1 ," fifomem_m0|mem_rtl_0|auto_generated|ram_block1a0_PORTBDATAOUT_bus [3] $end
$var wire 1 -" fifomem_m0|mem_rtl_0|auto_generated|ram_block1a0_PORTBDATAOUT_bus [2] $end
$var wire 1 ." fifomem_m0|mem_rtl_0|auto_generated|ram_block1a0_PORTBDATAOUT_bus [1] $end
$var wire 1 /" fifomem_m0|mem_rtl_0|auto_generated|ram_block1a0_PORTBDATAOUT_bus [0] $end
$upscope $end
$upscope $end
$enddefinitions $end
#0
$dumpvars
0!
0"
1#
0$
b11101100 %
0&
0.
0-
0,
0+
0*
0)
0(
0'
1/
00
x1
02
13
x4
15
16
17
18
09
0:
0;
0<
0=
0>
0?
0@
0A
0B
0C
0D
0E
0F
0G
0H
1I
1J
0K
0L
0M
0N
0O
0P
0Q
0R
0S
0T
0U
0V
0W
1X
0Y
0Z
0[
0\
0]
0^
0_
0`
0a
0b
0c
0d
0e
0f
0g
0h
1i
0j
0k
0l
0m
1n
0o
0p
1q
0r
0s
0t
0u
0v
0w
0x
1y
1z
0{
1|
1}
1~
0!!
0"!
0#!
0$!
0%!
0&!
0'!
0(!
0)!
0*!
0+!
0,!
0-!
0.!
0/!
00!
01!
02!
03!
04!
05!
06!
07!
0<!
0;!
0:!
09!
08!
0A!
0@!
0?!
0>!
0=!
0F!
0E!
0D!
0C!
zB!
0K!
0J!
0I!
0H!
0G!
0P!
0O!
0N!
0M!
zL!
0U!
0T!
0S!
0R!
zQ!
0Z!
0Y!
0X!
0W!
0V!
0_!
0^!
0]!
0\!
0[!
0d!
0c!
0b!
0a!
0`!
0i!
0h!
0g!
0f!
ze!
0/"
0."
0-"
0,"
0+"
0*"
0)"
0("
0'"
0&"
0%"
0$"
0#"
0""
0!"
0~!
0}!
0|!
0{!
0z!
0y!
0x!
0w!
0v!
0u!
0t!
0s!
0r!
0q!
0p!
0o!
0n!
0m!
0l!
0k!
0j!
$end
#10000
0#
0I
0J
01
#20000
b1101100 %
b1001100 %
b1011100 %
b1011000 %
1&
1#
0y
1{
0|
0~
1F
1I
1J
11
1w
1t
1F!
1a
1u
1l
1b
0X
#27000
1$
1D
1E
01
12!
1,!
1)!
1i!
1Z!
1m
0u
0a
1Q
14!
1.!
1+!
0b
1E!
1P
1?
1=
1<
1(
1*
1+
1e
#36000
0$
0D
0E
11
#40000
b1011010 %
1x
01
#45000
1$
1D
1E
11
1h!
0Z!
1Y!
0F!
1a
0l
1b
1X
#54000
0$
0D
0E
01
#60000
b1010010 %
b1110010 %
b1110110 %
1y
0z
1|
11
#63000
1$
1D
1E
01
0i!
1Z!
0m
1c
0a
0Q
1D!
1d
1W
0b
0P
0X
#72000
0$
0D
0E
11
#80000
b110110 %
b110111 %
b10110111 %
b10110101 %
b10111101 %
1s
0x
1z
0}
1~
01
#81000
1$
1D
1E
11
1g!
1X!
0Z!
0Y!
1j
0t
1C!
0E!
0d
1R
1u
1F!
0c
1a
0u
0e
1S
1l
0C!
1E!
1d
0R
1b
1e
0S
#90000
0$
0D
0E
01
#99000
1$
1D
1E
11
1i!
1Z!
1m
0a
1Q
0b
0E!
1P
0e
#100000
1"
b10101101 %
b10101001 %
b11101001 %
b11100001 %
1G
0y
0z
0{
1}
01
#105000
1!
1B
1C
11
1r
1_!
1]!
1^!
1k
1f
04!
0.!
0+!
0?
0=
0<
0(
0*
0+
#105001
1,"
1+"
1)"
1*!
1-!
13!
1+!
1.!
14!
1<
1=
1?
1+
1*
1(
#108000
0$
0D
0E
01
#114000
0!
0B
0C
11
#117000
1$
1D
1E
01
0h!
0Z!
1Y!
0F!
1a
0l
1b
#120000
b11000001 %
b1000001 %
b1000011 %
b1010011 %
b1010111 %
b1011111 %
1x
1y
1z
1{
0|
0~
11
#123000
1!
1B
1C
01
1d!
1b!
1c!
0^!
0n
1o
0f
#126000
0$
0D
0E
11
#132000
0!
0B
0C
01
#135000
1$
1D
1E
11
0i!
1Z!
0m
1c
0a
0Q
1C!
0d
1R
0b
0P
1S
#140000
b1011110 %
b11110 %
b111110 %
b10111110 %
b10111100 %
b10101100 %
b10101000 %
0s
0x
0y
0{
1|
0}
1~
01
#141000
1!
1B
1C
11
1p
0_!
0c!
1P!
1H
08
0/
#144000
0$
0D
0E
01
#150000
0!
0B
0C
11
#153000
1$
1D
1E
01
1f!
0X!
0Z!
1W!
0Y!
1g
0D!
1E!
1d
0W
1F!
0c
1a
1e
1l
1D!
0E!
0d
1W
1b
0e
#159000
1!
1B
1C
11
0d!
1\!
1U!
1<!
1K
0H
1O!
1N
#159001
1."
1#!
1%!
1:
1-
#160000
b10100000 %
b10100001 %
b11100001 %
b11000001 %
b11000101 %
1s
1y
0z
0|
1}
01
#162000
0$
0D
0E
11
#168000
0!
0B
0C
01
#171000
1$
1D
1E
11
1i!
1Z!
1A!
1m
0a
1Q
0b
1E!
1P
1e
#177000
1!
1B
1C
01
1_!
1a!
1T!
1;!
0<!
0i
1O
0P!
1H
#177001
1-"
0,"
1*"
1'!
0*!
10!
1(!
0+!
11!
1;
0<
1>
1,
0+
1)
#180000
b11000111 %
b11000011 %
0$
1x
0y
0D
0E
11
#186000
0!
0B
0C
01
#189000
1$
1D
1E
11
1h!
0Z!
1K!
1Y!
1@!
0F!
1a
0l
1b
#195000
1!
1B
1C
01
1d!
1^!
0U!
1<!
1f
1L
0K
0H
1N!
1M
1V
#195001
1/"
0."
1,"
0)"
1("
1!!
0#!
1*!
03!
16!
1"!
0%!
1+!
04!
17!
19
0:
1<
0?
1@
1.
0-
1+
0(
1'
#198000
0$
0D
0E
11
#200000
b11010011 %
b11010010 %
b10010010 %
b10110010 %
0s
1{
1|
0}
01
#204000
0!
0B
0C
11
#207000
1$
1D
1E
01
0i!
1Z!
0A!
1J!
0m
1c
0a
0Q
0D!
1d
0W
0b
0P
#213000
1!
1B
1C
11
0_!
1c!
1S!
1:!
0;!
0<!
1M!
1T
0O!
0M
1P!
0L
1H
1i
1U
0N
1n
0M!
0T
1O!
1M
0o
0i
0U
1N
1o
#216000
0$
0D
0E
01
#220000
b10110000 %
b10110100 %
b10100100 %
b11100100 %
b11000100 %
0x
1y
0{
0|
1}
11
#222000
0!
0B
0C
01
#225000
1$
1D
1E
11
0g!
1X!
0Z!
1?!
0K!
0Y!
0j
0E!
0d
1]
0R
1F!
0c
1a
1X
0e
1^
1\
0S
1l
1E!
1d
0]
1R
1b
0X
1e
0^
0\
1S
#231000
1!
1B
1C
01
0d!
0]!
1U!
1<!
0n
0k
1K
0H
0O!
0N
#231001
0-"
0,"
0+"
1)"
0'!
0*!
0-!
13!
0(!
0+!
0.!
14!
0;
0<
0=
1?
0,
0+
0*
1(
#234000
0$
0D
0E
11
#240000
b1000100 %
b1000000 %
0!
0y
0~
0B
0C
01
#243000
1$
1D
1E
11
1i!
1Z!
1I!
1A!
1m
0a
1Q
1W
0b
0E!
1P
0e
#249000
1!
1B
1C
01
1_!
0b!
0T!
1;!
0<!
0O
0P!
1H
#249001
1."
1-"
1,"
1+"
0*"
0("
1#!
1'!
1*!
1-!
00!
06!
1%!
1(!
1+!
1.!
01!
07!
1:
1;
1<
1=
0>
0@
1-
1,
1+
1*
0)
0'
#252000
0$
0D
0E
11
#258000
0!
0B
0C
01
#260000
b1000001 %
b1000011 %
b11 %
b100011 %
b10100011 %
1s
1x
1|
0}
1~
11
#261000
1$
1D
1E
01
0h!
0Z!
1K!
1Y!
0@!
0F!
1a
0l
1b
#267000
1!
1B
1C
11
1d!
0^!
0U!
1<!
0f
1L
0K
0H
1M!
1T
0M
1i
1U
#267001
0/"
0."
0-"
0+"
1*"
0)"
1("
0!!
0#!
0'!
0-!
10!
03!
16!
0"!
0%!
0(!
0.!
11!
04!
17!
09
0:
0;
0=
1>
0?
1@
0.
0-
0,
0*
1)
0(
1'
#270000
0$
0D
0E
01
#276000
0!
0B
0C
11
#279000
1$
1D
1E
01
0i!
1Z!
0A!
0J!
0m
1c
0a
0Q
0d
1]
0R
0b
0P
1^
1\
0S
#280000
b10100111 %
b10100101 %
0x
1y
11
#285000
1!
1B
1C
01
0_!
0c!
1R!
19!
0:!
0;!
0<!
0N!
1O!
1M
1P!
0L
1H
1n
0V
1N
1N!
0O!
0M
0o
0n
1V
0N
1o
#285001
1/"
1-"
0,"
0*"
1)"
1!!
1'!
0*!
00!
13!
1"!
1(!
0+!
01!
14!
19
1;
0<
0>
1?
1.
1,
0+
0)
1(
#288000
0$
0D
0E
11
#294000
0!
0B
0C
01
#297000
1$
1D
1E
11
0X!
0Z!
1V!
1>!
0W!
0K!
0Y!
1t
1D!
1E!
1d
0W
1F!
0c
1a
1h
1[
1u
1e
1l
0D!
0E!
0d
1W
1b
0e
#300000
0#
b10110101 %
b10110100 %
b11110100 %
b11110000 %
b11110010 %
0I
0s
1x
0y
1{
1}
0J
01
0r
0p
0d!
0a!
0\!
0f!
0V!
0>!
0R!
0I!
0?!
0S!
09!
0P!
0H
0i
0g
0h
0C!
0]
0[
0W
0M!
0N!
0T
18
1/
07!
1.!
1+!
0(!
0"!
1n
0^
0\
1i
0V
0U
0@
1=
1<
0;
09
0'
1*
1+
0,
0.
0o
#303000
1!
1B
1C
11
#303001
0/"
0-"
1,"
1+"
0("
0!!
0'!
1*!
1-!
06!
#306000
0$
0D
0E
01
#312000
0!
0B
0C
11
#315000
1$
1D
1E
01
15!
1/!
0)!
1$!
17!
11!
0+!
1%!
1@
1>
0<
1:
1'
1)
0+
1-
#320000
b11111010 %
b11011010 %
b1011010 %
1#
b1001010 %
b1001011 %
b1011 %
1s
1z
0{
0|
0}
0~
1I
1J
11
#321000
1!
1B
1C
01
1r
07!
01!
1+!
0%!
0@
0>
1<
0:
0'
0)
1+
0-
#321001
1."
0,"
1*"
1("
1#!
0*!
10!
16!
1%!
0+!
11!
17!
1:
0<
1>
1@
1-
0+
1)
1'
#324000
0$
0D
0E
11
#330000
0!
0B
0C
01
#333000
1$
1D
1E
11
05!
02!
0/!
0,!
1)!
1v
1i!
1Z!
1m
0u
0a
1Q
0b
1E!
1P
1e
#339000
1!
1B
1C
01
1_!
#339001
1/"
1,"
0+"
0*"
0)"
0("
1!!
1*!
0-!
00!
03!
06!
1"!
1+!
0.!
01!
04!
07!
19
1<
0=
0>
0?
0@
1.
1+
0*
0)
0(
0'
#340000
b1111 %
b1101 %
b101101 %
b10101101 %
b10101100 %
0s
0x
1y
1|
1~
11
#342000
0$
0D
0E
01
#348000
0!
0B
0C
11
#351000
1$
1D
1E
01
1h!
0Z!
1Y!
0F!
1a
0l
1b
1X
#357000
1!
1B
1C
11
1d!
1^!
0n
1f
1o
#360000
b11101100 %
b11001100 %
0$
0|
1}
0D
0E
01
#366000
0!
0B
0C
11
#369000
1$
1D
1E
01
0i!
1Z!
0m
1c
0a
0Q
1D!
1d
1W
0b
0P
0X
#375000
1!
1B
1C
11
1p
0_!
1c!
1P!
1H
08
0/
1n
#378000
0$
0D
0E
01
#380000
b11000100 %
b11010100 %
b11010000 %
b11010010 %
b11010011 %
1s
1x
0y
0z
1{
11
#384000
0!
0B
0C
01
#387000
1$
1D
1E
11
1g!
1X!
0Z!
0Y!
1j
0t
1C!
0E!
0d
1R
1u
1F!
0c
1a
0u
0e
1S
1l
0C!
1E!
1d
0R
1b
1e
0S
#393000
1!
1B
1C
01
0d!
1]!
1U!
1<!
0n
1k
1K
0H
1O!
1N
#393001
0/"
0."
1-"
1*"
1("
0!!
0#!
1'!
10!
16!
0"!
0%!
1(!
11!
17!
09
0:
1;
1>
1@
0.
0-
1,
1)
1'
#396000
0$
0D
0E
11
#400000
b1010011 %
b1000011 %
b1000111 %
1y
0{
0~
01
#402000
0!
0B
0C
11
#405000
1$
1D
1E
01
1i!
1Z!
1A!
1m
0a
1Q
0b
0E!
1P
0e
#411000
1!
1B
1C
11
1_!
1b!
1T!
1;!
0<!
1O
0P!
1H
#411001
0*"
1)"
00!
13!
01!
14!
0>
1?
0)
1(
#414000
0$
0D
0E
01
#420000
b111 %
b100111 %
b101111 %
b101101 %
b101100 %
b101000 %
0!
0s
0x
0y
1z
1|
0}
0B
0C
11
#423000
1$
1D
1E
01
0h!
0Z!
1K!
1Y!
1@!
0F!
1a
0l
1b
#429000
1!
1B
1C
11
1d!
0^!
0U!
1<!
0f
1L
0K
0H
1N!
1M
1V
#429001
1/"
1."
0-"
0,"
1+"
1!!
1#!
0'!
0*!
1-!
1"!
1%!
0(!
0+!
1.!
19
1:
0;
0<
1=
1.
1-
0,
0+
1*
#432000
0$
0D
0E
01
#438000
0!
0B
0C
11
#440000
b10101000 %
b10100000 %
b10100001 %
1s
0z
1~
01
#441000
1$
1D
1E
11
0i!
1Z!
0A!
1J!
0m
1c
0a
0Q
1C!
0d
1R
0b
0P
1S
#447000
1!
1B
1C
01
0_!
0c!
1S!
1:!
0;!
0<!
1M!
1T
0O!
0M
1P!
0L
1H
0i
1U
0N
1n
0M!
0T
1O!
1M
1i
0U
1N
#447001
1-"
0+"
0("
1'!
0-!
06!
1(!
0.!
07!
1;
0=
0@
1,
0*
0'
#450000
0$
0D
0E
11
#456000
0!
0B
0C
01
#459000
1$
1D
1E
11
1f!
0X!
0Z!
1?!
1W!
0K!
0Y!
1g
0D!
1E!
1d
0W
1F!
0c
1a
1e
1l
1D!
0E!
0d
1W
1b
0e
#460000
b10000001 %
b10000011 %
b10001011 %
b10001010 %
0s
1x
1z
0|
01
#465000
1!
1B
1C
11
0d!
1\!
1U!
1<!
0n
1K
0H
0O!
0N
#465001
0/"
0."
0-"
1,"
1*"
0)"
0!!
0#!
0'!
1*!
10!
03!
0"!
0%!
0(!
1+!
11!
04!
09
0:
0;
1<
1>
0?
0.
0-
0,
1+
1)
0(
#468000
0$
0D
0E
01
#474000
0!
0B
0C
11
#477000
1$
1D
1E
01
1i!
1Z!
1I!
1A!
1m
0a
1Q
0W
0b
1E!
1P
1e
#480000
b11001010 %
b1001010 %
b1000010 %
b1000011 %
1s
0z
1}
0~
11
#483000
1!
1B
1C
01
1_!
1a!
0T!
1;!
0<!
0i
0O
0P!
1H
1n
#483001
1/"
0,"
1("
1!!
0*!
16!
1"!
0+!
17!
19
0<
1@
1.
0+
1'
#486000
0$
0D
0E
11
#492000
0!
0B
0C
01
#495000
1$
1D
1E
11
1h!
0Z!
1K!
1Y!
0@!
0F!
1a
1X
0l
1b
0X
#500000
b1010011 %
b1010001 %
b10001 %
b10010001 %
b10010000 %
0s
0x
1{
0}
1~
01
#501000
1!
1B
1C
11
1d!
1^!
0U!
1<!
0n
1f
1L
0K
0H
1M!
1T
0M
1i
1U
#504000
0$
0D
0E
01
#510000
0!
0B
0C
11
#513000
1$
1D
1E
01
0i!
1Z!
0A!
0J!
0m
1c
0a
0Q
0D!
1d
1W
0b
0P
#519000
1!
1B
1C
11
0_!
1c!
1R!
19!
0:!
0;!
0<!
0N!
1O!
1M
1P!
0L
1H
0V
1N
1N!
0O!
0M
1n
1V
0N
#519001
0/"
1."
1,"
0*"
0!!
1#!
1*!
00!
0"!
1%!
1+!
01!
09
1:
1<
0>
0.
1-
1+
0)
#520000
b10010100 %
b10110100 %
b10111100 %
b11111100 %
1y
1z
1|
1}
01
#522000
0$
0D
0E
11
#528000
0!
0B
0C
01
#531000
1$
1D
1E
11
0g!
1X!
0Z!
1>!
0K!
0Y!
0j
0E!
0d
1]
0R
1F!
0c
1a
1[
0e
1^
1\
0S
1l
1E!
1d
0]
1R
1b
1e
0^
0\
1S
#537000
1!
1B
1C
01
0d!
0]!
1U!
1<!
0n
0k
1K
0H
1O!
1N
#537001
1/"
0,"
1)"
0("
1!!
0*!
13!
06!
1"!
0+!
14!
07!
19
0<
1?
0@
1.
0+
1(
0'
#540000
b11101100 %
b1101100 %
b1101101 %
b1100101 %
b100101 %
0$
1s
0z
0{
0}
0~
0D
0E
11
#546000
0!
0B
0C
01
#549000
1$
1D
1E
11
1i!
1Z!
1H!
1A!
1m
0a
1Q
0b
0E!
1P
0e
#555000
1!
1B
1C
01
1_!
0b!
1T!
1;!
0<!
1O
0P!
1H
#555001
0/"
0."
1+"
0)"
1("
0!!
0#!
1-!
03!
16!
0"!
0%!
1.!
04!
17!
09
0:
1=
0?
1@
0.
0-
1*
0(
1'
#558000
0$
0D
0E
11
#560000
b100111 %
b111 %
b10111 %
b11111 %
1x
1z
1{
0|
01
#564000
0!
0B
0C
11
#567000
1$
1D
1E
01
0h!
0Z!
1K!
1Y!
1@!
0F!
1a
0l
1b
#573000
1!
1B
1C
11
1d!
0^!
0U!
1<!
0f
1L
0K
0H
0N!
1M
0V
